%YAML 1.1
%TAG !u! tag:unity3d.com,2011:
--- !u!1 &6478609638945527039
GameObject:
  m_ObjectHideFlags: 0
  m_CorrespondingSourceObject: {fileID: 0}
  m_PrefabInstance: {fileID: 0}
  m_PrefabAsset: {fileID: 0}
  serializedVersion: 6
  m_Component:
  - component: {fileID: 4227151623896264035}
  - component: {fileID: 6490475739253663400}
  - component: {fileID: 1116562221769407504}
  m_Layer: 0
  m_Name: BookPickUp
  m_TagString: Untagged
  m_Icon: {fileID: 0}
  m_NavMeshLayer: 0
  m_StaticEditorFlags: 0
  m_IsActive: 1
--- !u!4 &4227151623896264035
Transform:
  m_ObjectHideFlags: 0
  m_CorrespondingSourceObject: {fileID: 0}
  m_PrefabInstance: {fileID: 0}
  m_PrefabAsset: {fileID: 0}
  m_GameObject: {fileID: 6478609638945527039}
  m_LocalRotation: {x: 0, y: 0, z: 0, w: 1}
  m_LocalPosition: {x: 0, y: 0.6, z: 0}
  m_LocalScale: {x: 1, y: 1, z: 1}
  m_Children:
  - {fileID: 1585828900660570267}
  m_Father: {fileID: 0}
  m_RootOrder: 0
  m_LocalEulerAnglesHint: {x: 0, y: 0, z: 0}
--- !u!65 &6490475739253663400
BoxCollider:
  m_ObjectHideFlags: 0
  m_CorrespondingSourceObject: {fileID: 0}
  m_PrefabInstance: {fileID: 0}
  m_PrefabAsset: {fileID: 0}
  m_GameObject: {fileID: 6478609638945527039}
  m_Material: {fileID: 0}
  m_IsTrigger: 0
  m_Enabled: 1
  serializedVersion: 2
  m_Size: {x: 0.3, y: 0.1, z: 0.6}
  m_Center: {x: 0, y: 0, z: 0}
--- !u!114 &1116562221769407504
MonoBehaviour:
  m_ObjectHideFlags: 0
  m_CorrespondingSourceObject: {fileID: 0}
  m_PrefabInstance: {fileID: 0}
  m_PrefabAsset: {fileID: 0}
  m_GameObject: {fileID: 6478609638945527039}
  m_Enabled: 1
  m_EditorHideFlags: 0
  m_Script: {fileID: 11500000, guid: 5aac55b35562ccb4abc5b3f95d5cc3b1, type: 3}
  m_Name: 
  m_EditorClassIdentifier: 
  degreesPerSecond: 15
  amplitude: 0.1
  frequency: 1
--- !u!1001 &5139038862974651511
PrefabInstance:
  m_ObjectHideFlags: 0
  serializedVersion: 2
  m_Modification:
    m_TransformParent: {fileID: 4227151623896264035}
    m_Modifications:
    - target: {fileID: 4957231571477918332, guid: 92d4430c1aabefa4691079bac409cbf9,
        type: 3}
      propertyPath: m_Name
      value: Book_09
      objectReference: {fileID: 0}
    - target: {fileID: 5859313293803644140, guid: 92d4430c1aabefa4691079bac409cbf9,
        type: 3}
      propertyPath: m_RootOrder
      value: 0
      objectReference: {fileID: 0}
    - target: {fileID: 5859313293803644140, guid: 92d4430c1aabefa4691079bac409cbf9,
        type: 3}
      propertyPath: m_LocalScale.x
      value: 1.5
      objectReference: {fileID: 0}
    - target: {fileID: 5859313293803644140, guid: 92d4430c1aabefa4691079bac409cbf9,
        type: 3}
      propertyPath: m_LocalScale.y
      value: 1.5
      objectReference: {fileID: 0}
    - target: {fileID: 5859313293803644140, guid: 92d4430c1aabefa4691079bac409cbf9,
        type: 3}
      propertyPath: m_LocalScale.z
      value: 1.5
      objectReference: {fileID: 0}
    - target: {fileID: 5859313293803644140, guid: 92d4430c1aabefa4691079bac409cbf9,
        type: 3}
      propertyPath: m_LocalPosition.x
      value: 0
      objectReference: {fileID: 0}
    - target: {fileID: 5859313293803644140, guid: 92d4430c1aabefa4691079bac409cbf9,
        type: 3}
      propertyPath: m_LocalPosition.y
      value: 0
      objectReference: {fileID: 0}
    - target: {fileID: 5859313293803644140, guid: 92d4430c1aabefa4691079bac409cbf9,
        type: 3}
      propertyPath: m_LocalPosition.z
      value: 0
      objectReference: {fileID: 0}
    - target: {fileID: 5859313293803644140, guid: 92d4430c1aabefa4691079bac409cbf9,
        type: 3}
      propertyPath: m_LocalRotation.w
      value: 0
      objectReference: {fileID: 0}
    - target: {fileID: 5859313293803644140, guid: 92d4430c1aabefa4691079bac409cbf9,
        type: 3}
      propertyPath: m_LocalRotation.x
      value: 0
      objectReference: {fileID: 0}
    - target: {fileID: 5859313293803644140, guid: 92d4430c1aabefa4691079bac409cbf9,
        type: 3}
      propertyPath: m_LocalRotation.y
      value: 1
      objectReference: {fileID: 0}
    - target: {fileID: 5859313293803644140, guid: 92d4430c1aabefa4691079bac409cbf9,
        type: 3}
      propertyPath: m_LocalRotation.z
      value: 0
      objectReference: {fileID: 0}
    - target: {fileID: 5859313293803644140, guid: 92d4430c1aabefa4691079bac409cbf9,
        type: 3}
      propertyPath: m_LocalEulerAnglesHint.x
      value: 0
      objectReference: {fileID: 0}
    - target: {fileID: 5859313293803644140, guid: 92d4430c1aabefa4691079bac409cbf9,
        type: 3}
      propertyPath: m_LocalEulerAnglesHint.y
      value: 180
      objectReference: {fileID: 0}
    - target: {fileID: 5859313293803644140, guid: 92d4430c1aabefa4691079bac409cbf9,
        type: 3}
      propertyPath: m_LocalEulerAnglesHint.z
      value: 0
      objectReference: {fileID: 0}
    m_RemovedComponents:
    - {fileID: 8731530462250995355, guid: 92d4430c1aabefa4691079bac409cbf9, type: 3}
  m_SourcePrefab: {fileID: 100100000, guid: 92d4430c1aabefa4691079bac409cbf9, type: 3}
--- !u!4 &1585828900660570267 stripped
Transform:
  m_CorrespondingSourceObject: {fileID: 5859313293803644140, guid: 92d4430c1aabefa4691079bac409cbf9,
    type: 3}
  m_PrefabInstance: {fileID: 5139038862974651511}
  m_PrefabAsset: {fileID: 0}
